[
  {
    "name": "firstname",
    "label": "First Name",
    "type": "string",
    "hidden": false,
    "options": []
  },
  {
    "name": "lastname",
    "label": "Last Name",
    "type": "string",
    "hidden": false,
    "options": []
  },
  {
    "name": "email",
    "label": "Email",
    "type": "string",
    "hidden": false,
    "options": []
  },
  {
    "name": "createdate",
    "label": "Create Date",
    "type": "datetime",
    "hidden": false,
    "options": []
  },
  {
    "name": "hiddenfield",
    "label": "Hidden Field",
    "type": "text",
    "hidden": true,
    "options": []
  },
  {
    "name": "hubspot_owner_id",
    "label": "HubSpot Owner",
    "type": "enumeration",
    "hidden": false,
    "options": []
  },
  {
    "name": "jobtitle",
    "label": "Job Title",
    "type": "string",
    "hidden": false,
    "options": []
  }
]
